			kalibr.krivka
vln. delka	KalibLampa	nominal-spectr.	spekt.odezva
nm	namer.spectr. [V]	  [mW / m2 nm]	  [V m2 nm / mW ]
250	5.90E-07	0.05153	1.15E-05
251	4.63E-07	0.05466	8.47E-06
252	5.43E-07	0.05793	9.37E-06
253	6.01E-07	0.06135	9.79E-06
254	4.09E-07	0.06493	6.30E-06
255	7.13E-07	0.06866	1.04E-05
256	6.59E-07	0.07256	9.09E-06
257	5.19E-07	0.07662	6.77E-06
258	6.21E-07	0.08085	7.69E-06
259	3.37E-07	0.08526	3.95E-06
260	9.30E-07	0.08986	1.03E-05
261	4.47E-07	0.09464	4.72E-06
262	4.24E-07	0.09961	4.26E-06
263	3.98E-07	0.10478	3.80E-06
264	4.67E-07	0.11016	4.24E-06
265	6.59E-07	0.11574	5.70E-06
266	3.71E-07	0.12154	3.05E-06
267	8.07E-07	0.12756	6.33E-06
268	6.74E-07	0.1338	5.04E-06
269	6.85E-07	0.14028	4.88E-06
270	7.20E-07	0.14699	4.90E-06
271	4.92E-07	0.15395	3.20E-06
272	4.63E-07	0.16115	2.88E-06
273	4.65E-07	0.16861	2.76E-06
274	7.12E-07	0.17633	4.04E-06
275	4.94E-07	0.18432	2.68E-06
276	5.58E-07	0.19258	2.90E-06
277	4.65E-07	0.20112	2.31E-06
278	4.66E-07	0.20994	2.22E-06
279	8.24E-07	0.21906	3.76E-06
280	5.76E-07	0.22848	2.52E-06
281	3.98E-07	0.2382	1.67E-06
282	4.71E-07	0.24823	1.90E-06
283	4.35E-07	0.25858	1.68E-06
284	4.48E-07	0.26925	1.66E-06
285	5.28E-07	0.28026	1.88E-06
286	5.29E-07	0.2916	1.81E-06
287	4.67E-07	0.30328	1.54E-06
288	4.96E-07	0.31532	1.57E-06
289	5.05E-07	0.32771	1.54E-06
290	4.18E-07	0.34046	1.23E-06
291	3.08E-07	0.35359	8.72E-07
292	4.97E-07	0.36709	1.35E-06
293	6.59E-07	0.38098	1.73E-06
294	6.43E-07	0.39526	1.63E-06
295	6.08E-07	0.40993	1.48E-06
296	5.30E-07	0.42501	1.25E-06
297	3.52E-07	0.4405	8.00E-07
298	4.80E-07	0.45641	1.05E-06
299	6.15E-07	0.47274	1.30E-06
300	4.97E-07	0.4895	1.02E-06
301	4.90E-07	0.5067	9.66E-07
302	5.52E-07	0.52435	1.05E-06
303	7.08E-07	0.54245	1.30E-06
304	6.24E-07	0.56101	1.11E-06
305	6.38E-07	0.58003	1.10E-06
306	7.13E-07	0.59952	1.19E-06
307	5.94E-07	0.6195	9.58E-07
308	5.76E-07	0.63996	9.00E-07
309	4.68E-07	0.66091	7.08E-07
310	6.58E-07	0.68236	9.64E-07
311	6.79E-07	0.70432	9.64E-07
312	5.53E-07	0.72679	7.61E-07
313	4.48E-07	0.74978	5.98E-07
314	5.57E-07	0.7733	7.21E-07
315	8.02E-07	0.79734	1.01E-06
316	7.69E-07	0.82193	9.36E-07
317	5.15E-07	0.84706	6.08E-07
318	7.47E-07	0.87275	8.56E-07
319	6.18E-07	0.89899	6.87E-07
320	9.24E-07	0.9258	9.98E-07
321	9.68E-07	0.95318	1.02E-06
322	9.29E-07	0.98113	9.47E-07
323	9.02E-07	1.00967	8.93E-07
324	7.72E-07	1.0388	7.43E-07
325	1.23E-06	1.06853	1.15E-06
326	9.09E-07	1.09886	8.27E-07
327	1.10E-06	1.12979	9.73E-07
328	1.37E-06	1.16134	1.18E-06
329	1.02E-06	1.19351	8.52E-07
330	1.23E-06	1.22631	1.00E-06
331	1.15E-06	1.25973	9.16E-07
332	1.09E-06	1.2938	8.42E-07
333	1.32E-06	1.3285	9.90E-07
334	1.25E-06	1.36386	9.16E-07
335	1.36E-06	1.39987	9.73E-07
336	1.43E-06	1.43653	9.97E-07
337	1.20E-06	1.47387	8.17E-07
338	1.60E-06	1.51187	1.06E-06
339	1.56E-06	1.55054	1.01E-06
340	1.91E-06	1.5899	1.20E-06
341	1.63E-06	1.62994	9.98E-07
342	1.66E-06	1.67067	9.95E-07
343	1.65E-06	1.71209	9.66E-07
344	1.95E-06	1.75422	1.11E-06
345	2.40E-06	1.79705	1.34E-06
346	1.85E-06	1.84058	1.00E-06
347	2.40E-06	1.88483	1.27E-06
348	2.11E-06	1.92979	1.09E-06
349	2.16E-06	1.97548	1.09E-06
350	2.38E-06	2.02189	1.18E-06
351	2.56E-06	2.06903	1.24E-06
352	2.73E-06	2.1169	1.29E-06
353	2.93E-06	2.16551	1.35E-06
354	2.69E-06	2.21486	1.21E-06
355	2.76E-06	2.26496	1.22E-06
356	3.16E-06	2.3158	1.37E-06
357	3.35E-06	2.3674	1.41E-06
358	3.35E-06	2.41974	1.39E-06
359	3.25E-06	2.47285	1.31E-06
360	2.90E-06	2.52671	1.15E-06
361	3.23E-06	2.58134	1.25E-06
362	3.48E-06	2.63674	1.32E-06
363	3.73E-06	2.6929	1.39E-06
364	3.74E-06	2.74984	1.36E-06
365	4.15E-06	2.80755	1.48E-06
366	4.13E-06	2.86603	1.44E-06
367	3.93E-06	2.9253	1.34E-06
368	4.41E-06	2.98534	1.48E-06
369	4.30E-06	3.04617	1.41E-06
370	4.29E-06	3.10778	1.38E-06
371	4.47E-06	3.17018	1.41E-06
372	4.79E-06	3.23337	1.48E-06
373	4.44E-06	3.29734	1.35E-06
374	4.75E-06	3.36211	1.41E-06
375	5.45E-06	3.42767	1.59E-06
376	5.45E-06	3.49402	1.56E-06
377	5.74E-06	3.56117	1.61E-06
378	5.70E-06	3.62911	1.57E-06
379	5.77E-06	3.69785	1.56E-06
380	6.39E-06	3.76738	1.70E-06
381	6.42E-06	3.83771	1.67E-06
382	6.47E-06	3.90885	1.65E-06
383	6.49E-06	3.98077	1.63E-06
384	6.94E-06	4.0535	1.71E-06
385	7.34E-06	4.12703	1.78E-06
386	7.15E-06	4.20135	1.70E-06
387	8.05E-06	4.27647	1.88E-06
388	7.87E-06	4.35239	1.81E-06
389	8.52E-06	4.42911	1.92E-06
390	8.48E-06	4.50663	1.88E-06
391	8.77E-06	4.58494	1.91E-06
392	9.05E-06	4.66405	1.94E-06
393	9.29E-06	4.74395	1.96E-06
394	9.38E-06	4.82465	1.94E-06
395	9.91E-06	4.90614	2.02E-06
396	1.02E-05	4.98842	2.04E-06
397	1.01E-05	5.07149	2.00E-06
398	1.09E-05	5.15535	2.12E-06
399	1.09E-05	5.24	2.09E-06
400	1.10E-05	5.32544	2.07E-06
401	1.16E-05	5.41166	2.14E-06
402	1.17E-05	5.49866	2.13E-06
403	1.21E-05	5.58644	2.16E-06
404	1.22E-05	5.675	2.15E-06
405	1.27E-05	5.76433	2.21E-06
406	1.30E-05	5.85444	2.22E-06
407	1.34E-05	5.94532	2.25E-06
408	1.37E-05	6.03697	2.27E-06
409	1.45E-05	6.12939	2.36E-06
410	1.45E-05	6.22257	2.33E-06
411	1.48E-05	6.3165	2.35E-06
412	1.54E-05	6.4112	2.41E-06
413	1.56E-05	6.50665	2.40E-06
414	1.63E-05	6.60286	2.46E-06
415	1.68E-05	6.69981	2.51E-06
416	1.67E-05	6.7975	2.46E-06
417	1.72E-05	6.89594	2.49E-06
418	1.77E-05	6.99511	2.53E-06
419	1.80E-05	7.09502	2.54E-06
420	1.79E-05	7.19566	2.49E-06
421	1.86E-05	7.29703	2.55E-06
422	1.90E-05	7.39912	2.57E-06
423	1.87E-05	7.50193	2.49E-06
424	1.96E-05	7.60545	2.58E-06
425	2.00E-05	7.70968	2.59E-06
426	2.02E-05	7.81462	2.59E-06
427	2.05E-05	7.92027	2.59E-06
428	2.12E-05	8.02661	2.65E-06
429	2.15E-05	8.13364	2.64E-06
430	2.15E-05	8.24136	2.60E-06
431	2.20E-05	8.34976	2.64E-06
432	2.22E-05	8.45885	2.63E-06
433	2.28E-05	8.56861	2.66E-06
434	2.28E-05	8.67903	2.63E-06
435	2.36E-05	8.79013	2.69E-06
436	2.40E-05	8.90188	2.70E-06
437	2.39E-05	9.01428	2.66E-06
438	2.45E-05	9.12734	2.68E-06
439	2.46E-05	9.24104	2.66E-06
440	2.54E-05	9.35537	2.71E-06
441	2.54E-05	9.47034	2.69E-06
442	2.56E-05	9.58594	2.67E-06
443	2.62E-05	9.70216	2.70E-06
444	2.66E-05	9.819	2.71E-06
445	2.68E-05	9.93644	2.69E-06
446	2.72E-05	10.0545	2.70E-06
447	2.74E-05	10.17315	2.69E-06
448	2.80E-05	10.29239	2.72E-06
449	2.83E-05	10.41222	2.72E-06
450	2.83E-05	10.53264	2.68E-06
451	2.86E-05	10.65363	2.69E-06
452	2.90E-05	10.77519	2.69E-06
453	2.97E-05	10.89731	2.73E-06
454	2.98E-05	11.01999	2.71E-06
455	3.00E-05	11.14322	2.69E-06
456	3.01E-05	11.267	2.67E-06
457	3.05E-05	11.39131	2.68E-06
458	3.11E-05	11.51616	2.70E-06
459	3.15E-05	11.64153	2.70E-06
460	3.24E-05	11.76742	2.75E-06
461	3.23E-05	11.89383	2.71E-06
462	3.23E-05	12.02074	2.69E-06
463	3.26E-05	12.14815	2.68E-06
464	3.30E-05	12.27605	2.69E-06
465	3.29E-05	12.40445	2.65E-06
466	3.31E-05	12.53332	2.64E-06
467	3.39E-05	12.66266	2.67E-06
468	3.38E-05	12.79248	2.64E-06
469	3.43E-05	12.92275	2.65E-06
470	3.45E-05	13.05347	2.64E-06
471	3.46E-05	13.18465	2.62E-06
472	3.52E-05	13.31626	2.64E-06
473	3.51E-05	13.4483	2.61E-06
474	3.55E-05	13.58077	2.61E-06
475	3.58E-05	13.71366	2.61E-06
476	3.63E-05	13.84696	2.62E-06
477	3.60E-05	13.98067	2.58E-06
478	3.65E-05	14.11477	2.59E-06
479	3.66E-05	14.24927	2.57E-06
480	3.71E-05	14.38415	2.58E-06
481	3.73E-05	14.51941	2.57E-06
482	3.78E-05	14.65504	2.58E-06
483	3.75E-05	14.79103	2.54E-06
484	3.79E-05	14.92737	2.54E-06
485	3.87E-05	15.06407	2.57E-06
486	3.93E-05	15.20111	2.58E-06
487	3.92E-05	15.33848	2.55E-06
488	3.95E-05	15.47618	2.55E-06
489	3.96E-05	15.6142	2.54E-06
490	3.99E-05	15.75254	2.53E-06
491	4.04E-05	15.89118	2.54E-06
492	4.08E-05	16.03012	2.54E-06
493	4.08E-05	16.16936	2.53E-06
494	4.15E-05	16.30888	2.54E-06
495	4.13E-05	16.44868	2.51E-06
496	4.17E-05	16.58875	2.51E-06
497	4.22E-05	16.72908	2.52E-06
498	4.24E-05	16.86967	2.51E-06
499	4.25E-05	17.01051	2.50E-06
500	4.30E-05	17.15159	2.51E-06
501	4.35E-05	17.29291	2.51E-06
502	4.35E-05	17.43446	2.49E-06
503	4.42E-05	17.57622	2.51E-06
504	4.45E-05	17.71821	2.51E-06
505	4.47E-05	17.8604	2.50E-06
506	4.50E-05	18.00279	2.50E-06
507	4.51E-05	18.14537	2.49E-06
508	4.57E-05	18.28814	2.50E-06
509	4.60E-05	18.43109	2.50E-06
510	4.58E-05	18.57421	2.46E-06
511	4.63E-05	18.7175	2.47E-06
512	4.67E-05	18.86094	2.48E-06
513	4.68E-05	19.00454	2.46E-06
514	4.73E-05	19.14828	2.47E-06
515	4.75E-05	19.29216	2.46E-06
516	4.76E-05	19.43617	2.45E-06
517	4.81E-05	19.5803	2.45E-06
518	4.84E-05	19.72455	2.45E-06
519	4.82E-05	19.86891	2.42E-06
520	4.89E-05	20.01338	2.44E-06
521	4.94E-05	20.15794	2.45E-06
522	4.95E-05	20.30258	2.44E-06
523	4.98E-05	20.44732	2.44E-06
524	5.01E-05	20.59213	2.43E-06
525	5.04E-05	20.737	2.43E-06
526	5.05E-05	20.88194	2.42E-06
527	5.07E-05	21.02694	2.41E-06
528	5.11E-05	21.17199	2.41E-06
529	5.14E-05	21.31708	2.41E-06
530	5.13E-05	21.4622	2.39E-06
531	5.21E-05	21.60736	2.41E-06
532	5.21E-05	21.75254	2.40E-06
533	5.22E-05	21.89773	2.38E-06
534	5.25E-05	22.04294	2.38E-06
535	5.27E-05	22.18815	2.38E-06
536	5.32E-05	22.33335	2.38E-06
537	5.32E-05	22.47855	2.37E-06
538	5.35E-05	22.62374	2.36E-06
539	5.38E-05	22.7689	2.36E-06
540	5.40E-05	22.91403	2.36E-06
541	5.45E-05	23.05913	2.36E-06
542	5.39E-05	23.20419	2.32E-06
543	5.45E-05	23.34921	2.33E-06
544	5.48E-05	23.49417	2.33E-06
545	5.50E-05	23.63907	2.33E-06
546	5.54E-05	23.78391	2.33E-06
547	5.55E-05	23.92868	2.32E-06
548	5.58E-05	24.07337	2.32E-06
549	5.58E-05	24.21797	2.30E-06
550	5.60E-05	24.36249	2.30E-06
551	5.60E-05	24.50692	2.29E-06
552	5.64E-05	24.65124	2.29E-06
553	5.66E-05	24.79546	2.28E-06
554	5.68E-05	24.93957	2.28E-06
555	5.68E-05	25.08356	2.27E-06
556	5.72E-05	25.22743	2.27E-06
557	5.69E-05	25.37116	2.24E-06
558	5.70E-05	25.51477	2.23E-06
559	5.78E-05	25.65823	2.25E-06
560	5.74E-05	25.80154	2.22E-06
561	5.80E-05	25.94471	2.24E-06
562	5.77E-05	26.08772	2.21E-06
563	5.78E-05	26.23057	2.20E-06
564	5.80E-05	26.37325	2.20E-06
565	5.82E-05	26.51575	2.19E-06
566	5.82E-05	26.65808	2.18E-06
567	5.80E-05	26.80023	2.16E-06
568	5.83E-05	26.94219	2.16E-06
569	5.85E-05	27.08395	2.16E-06
570	5.88E-05	27.22551	2.16E-06
571	5.86E-05	27.36688	2.14E-06
572	5.90E-05	27.50803	2.14E-06
573	5.91E-05	27.64897	2.14E-06
574	5.91E-05	27.78969	2.13E-06
575	5.90E-05	27.93018	2.11E-06
576	5.90E-05	28.07045	2.10E-06
577	5.90E-05	28.21048	2.09E-06
578	5.92E-05	28.35028	2.09E-06
579	5.90E-05	28.48983	2.07E-06
580	5.92E-05	28.62913	2.07E-06
581	5.92E-05	28.76819	2.06E-06
582	5.91E-05	28.90698	2.05E-06
583	5.93E-05	29.04552	2.04E-06
584	5.94E-05	29.18378	2.04E-06
585	5.94E-05	29.32178	2.03E-06
586	5.97E-05	29.4595	2.03E-06
587	5.94E-05	29.59694	2.01E-06
588	5.88E-05	29.7341	1.98E-06
589	5.94E-05	29.87097	1.99E-06
590	5.94E-05	30.00755	1.98E-06
591	5.94E-05	30.14383	1.97E-06
592	5.93E-05	30.27982	1.96E-06
593	5.92E-05	30.41549	1.95E-06
594	5.93E-05	30.55086	1.94E-06
595	5.92E-05	30.68591	1.93E-06
596	5.93E-05	30.82065	1.93E-06
597	5.92E-05	30.95507	1.91E-06
598	5.93E-05	31.08916	1.91E-06
599	5.90E-05	31.22292	1.89E-06
600	5.88E-05	31.35635	1.88E-06
601	5.91E-05	31.48944	1.88E-06
602	5.87E-05	31.6222	1.86E-06
603	5.88E-05	31.75461	1.85E-06
604	5.88E-05	31.88667	1.85E-06
605	5.87E-05	32.01838	1.83E-06
606	5.83E-05	32.14973	1.81E-06
607	5.87E-05	32.28073	1.82E-06
608	5.85E-05	32.41137	1.81E-06
609	5.84E-05	32.54164	1.80E-06
610	5.86E-05	32.67154	1.79E-06
611	5.79E-05	32.80107	1.77E-06
612	5.80E-05	32.93023	1.76E-06
613	5.78E-05	33.059	1.75E-06
614	5.75E-05	33.1874	1.73E-06
615	5.73E-05	33.31541	1.72E-06
616	5.75E-05	33.44303	1.72E-06
617	5.74E-05	33.57026	1.71E-06
618	5.72E-05	33.69709	1.70E-06
619	5.70E-05	33.82353	1.68E-06
620	5.67E-05	33.94957	1.67E-06
621	5.66E-05	34.07521	1.66E-06
622	5.64E-05	34.20044	1.65E-06
623	5.64E-05	34.32526	1.64E-06
624	5.64E-05	34.44966	1.64E-06
625	5.62E-05	34.57366	1.62E-06
626	5.59E-05	34.69723	1.61E-06
627	5.56E-05	34.82039	1.60E-06
628	5.54E-05	34.94312	1.59E-06
629	5.52E-05	35.06543	1.57E-06
630	5.52E-05	35.18731	1.57E-06
631	5.46E-05	35.30876	1.55E-06
632	5.49E-05	35.42978	1.55E-06
633	5.44E-05	35.55036	1.53E-06
634	5.40E-05	35.67051	1.51E-06
635	5.40E-05	35.79021	1.51E-06
636	5.38E-05	35.90947	1.50E-06
637	5.36E-05	36.02829	1.49E-06
638	5.30E-05	36.14666	1.47E-06
639	5.31E-05	36.26458	1.46E-06
640	5.27E-05	36.38205	1.45E-06
641	5.28E-05	36.49907	1.45E-06
642	5.25E-05	36.61563	1.43E-06
643	5.22E-05	36.73173	1.42E-06
644	5.19E-05	36.84737	1.41E-06
645	5.17E-05	36.96255	1.40E-06
646	5.13E-05	37.07727	1.38E-06
647	5.10E-05	37.19152	1.37E-06
648	5.07E-05	37.30531	1.36E-06
649	5.00E-05	37.41862	1.34E-06
650	5.01E-05	37.53147	1.33E-06
651	4.96E-05	37.64384	1.32E-06
652	4.92E-05	37.75574	1.30E-06
653	4.90E-05	37.86716	1.29E-06
654	4.84E-05	37.9781	1.27E-06
655	4.80E-05	38.08856	1.26E-06
656	4.76E-05	38.19854	1.24E-06
657	4.67E-05	38.30804	1.22E-06
658	4.66E-05	38.41705	1.21E-06
659	4.59E-05	38.52558	1.19E-06
660	4.45E-05	38.63362	1.15E-06
661	4.40E-05	38.74118	1.14E-06
662	4.26E-05	38.84824	1.10E-06
663	4.16E-05	38.95481	1.07E-06
664	4.07E-05	39.06089	1.04E-06
665	4.09E-05	39.16647	1.04E-06
666	4.13E-05	39.27156	1.05E-06
667	4.21E-05	39.37616	1.07E-06
668	4.27E-05	39.48025	1.08E-06
669	4.39E-05	39.58385	1.11E-06
670	4.44E-05	39.68695	1.12E-06
671	4.50E-05	39.78954	1.13E-06
672	4.60E-05	39.89163	1.15E-06
673	4.70E-05	39.99322	1.17E-06
674	4.81E-05	40.09431	1.20E-06
675	4.89E-05	40.19489	1.22E-06
676	4.97E-05	40.29497	1.23E-06
677	5.09E-05	40.39454	1.26E-06
678	5.20E-05	40.4936	1.28E-06
679	5.30E-05	40.59215	1.31E-06
680	5.36E-05	40.69019	1.32E-06
681	5.44E-05	40.78772	1.33E-06
682	5.53E-05	40.88475	1.35E-06
683	5.61E-05	40.98126	1.37E-06
684	5.69E-05	41.07725	1.39E-06
685	5.79E-05	41.17274	1.41E-06
686	5.82E-05	41.26771	1.41E-06
687	5.85E-05	41.36217	1.41E-06
688	5.93E-05	41.45611	1.43E-06
689	6.00E-05	41.54953	1.44E-06
690	6.02E-05	41.64244	1.45E-06
691	6.11E-05	41.73484	1.46E-06
692	6.10E-05	41.82671	1.46E-06
693	6.17E-05	41.91807	1.47E-06
694	6.19E-05	42.00892	1.47E-06
695	6.22E-05	42.09924	1.48E-06
696	6.28E-05	42.18905	1.49E-06
697	6.29E-05	42.27833	1.49E-06
698	6.28E-05	42.3671	1.48E-06
699	6.31E-05	42.45535	1.49E-06
700	6.32E-05	42.54307	1.49E-06
701	6.33E-05	42.63028	1.49E-06
702	6.36E-05	42.71697	1.49E-06
703	6.38E-05	42.80314	1.49E-06
704	6.38E-05	42.88878	1.49E-06
705	6.34E-05	42.97391	1.48E-06
706	6.36E-05	43.05851	1.48E-06
707	6.33E-05	43.1426	1.47E-06
708	6.34E-05	43.22616	1.47E-06
709	6.38E-05	43.3092	1.47E-06
710	6.32E-05	43.39172	1.46E-06
711	6.33E-05	43.47372	1.46E-06
712	6.26E-05	43.5552	1.44E-06
713	6.30E-05	43.63616	1.44E-06
714	6.25E-05	43.7166	1.43E-06
715	6.26E-05	43.79651	1.43E-06
716	6.24E-05	43.87591	1.42E-06
717	6.20E-05	43.95478	1.41E-06
718	6.17E-05	44.03314	1.40E-06
719	6.12E-05	44.11097	1.39E-06
720	6.12E-05	44.18829	1.38E-06
721	6.10E-05	44.26508	1.38E-06
722	6.05E-05	44.34136	1.37E-06
723	6.05E-05	44.41711	1.36E-06
724	6.00E-05	44.49235	1.35E-06
725	5.96E-05	44.56707	1.34E-06
726	5.92E-05	44.64126	1.33E-06
727	5.90E-05	44.71494	1.32E-06
728	5.89E-05	44.78811	1.32E-06
729	5.82E-05	44.86075	1.30E-06
730	5.81E-05	44.93288	1.29E-06
731	5.76E-05	45.00449	1.28E-06
732	5.76E-05	45.07559	1.28E-06
733	5.71E-05	45.14617	1.26E-06
734	5.71E-05	45.21623	1.26E-06
735	5.64E-05	45.28578	1.25E-06
736	5.61E-05	45.35482	1.24E-06
737	5.57E-05	45.42334	1.23E-06
738	5.56E-05	45.49135	1.22E-06
739	5.48E-05	45.55885	1.20E-06
740	5.44E-05	45.62583	1.19E-06
741	5.44E-05	45.6923	1.19E-06
742	5.39E-05	45.75826	1.18E-06
743	5.36E-05	45.82371	1.17E-06
744	5.31E-05	45.88865	1.16E-06
745	5.29E-05	45.95309	1.15E-06
746	5.23E-05	46.01701	1.14E-06
747	5.16E-05	46.08043	1.12E-06
748	5.19E-05	46.14333	1.12E-06
749	5.11E-05	46.20574	1.11E-06
750	5.05E-05	46.26763	1.09E-06
751	5.05E-05	46.32903	1.09E-06
752	5.01E-05	46.38991	1.08E-06
753	5.00E-05	46.4503	1.08E-06
754	4.92E-05	46.51018	1.06E-06
755	4.91E-05	46.56956	1.05E-06
756	4.85E-05	46.62844	1.04E-06
757	4.84E-05	46.68682	1.04E-06
758	4.75E-05	46.7447	1.02E-06
759	4.76E-05	46.80208	1.02E-06
760	4.71E-05	46.85897	1.00E-06
761	4.65E-05	46.91535	9.92E-07
762	4.62E-05	46.97125	9.83E-07
763	4.59E-05	47.02664	9.75E-07
764	4.54E-05	47.08155	9.65E-07
765	4.49E-05	47.13596	9.53E-07
766	4.44E-05	47.18987	9.41E-07
767	4.43E-05	47.2433	9.37E-07
768	4.44E-05	47.29624	9.38E-07
769	4.37E-05	47.34868	9.23E-07
770	4.35E-05	47.40064	9.17E-07
771	4.27E-05	47.45211	9.00E-07
772	4.27E-05	47.5031	8.99E-07
773	4.26E-05	47.5536	8.96E-07
774	4.21E-05	47.60361	8.84E-07
775	4.15E-05	47.65314	8.72E-07
776	4.13E-05	47.70219	8.65E-07
777	4.08E-05	47.75076	8.54E-07
778	4.09E-05	47.79885	8.56E-07
779	4.03E-05	47.84646	8.42E-07
780	3.99E-05	47.89359	8.34E-07
781	3.96E-05	47.94025	8.26E-07
782	3.93E-05	47.98643	8.20E-07
783	3.87E-05	48.03213	8.06E-07
784	3.81E-05	48.07737	7.93E-07
785	3.82E-05	48.12213	7.94E-07
786	3.80E-05	48.16641	7.88E-07
787	3.77E-05	48.21023	7.82E-07
788	3.74E-05	48.25358	7.76E-07
789	3.70E-05	48.29646	7.67E-07
790	3.68E-05	48.33888	7.61E-07
791	3.63E-05	48.38083	7.50E-07
792	3.61E-05	48.42231	7.45E-07
793	3.59E-05	48.46334	7.41E-07
794	3.50E-05	48.5039	7.22E-07
795	3.55E-05	48.544	7.31E-07
796	3.48E-05	48.58364	7.17E-07
797	3.47E-05	48.62282	7.13E-07
798	3.40E-05	48.66155	6.99E-07
799	3.42E-05	48.69982	7.02E-07
800	3.34E-05	48.73764	6.86E-07
801	3.34E-05	48.775	6.86E-07
802	3.32E-05	48.81191	6.80E-07
803	3.30E-05	48.84837	6.76E-07
804	3.26E-05	48.88439	6.67E-07
805	3.25E-05	48.91995	6.65E-07
806	3.24E-05	48.95507	6.62E-07
807	3.21E-05	48.98974	6.55E-07
808	3.20E-05	49.02397	6.52E-07
809	3.16E-05	49.05775	6.43E-07
810	3.15E-05	49.09109	6.41E-07
811	3.16E-05	49.124	6.44E-07
812	3.10E-05	49.15646	6.30E-07
813	3.13E-05	49.18849	6.36E-07
814	3.01E-05	49.22008	6.11E-07
815	3.04E-05	49.25123	6.18E-07
816	3.03E-05	49.28196	6.15E-07
817	3.01E-05	49.31225	6.10E-07
818	3.01E-05	49.34211	6.11E-07
819	3.01E-05	49.37154	6.10E-07
820	2.97E-05	49.40054	6.02E-07
821	2.93E-05	49.42911	5.93E-07
822	2.95E-05	49.45726	5.97E-07
823	2.90E-05	49.48499	5.86E-07
824	2.89E-05	49.51229	5.83E-07
825	2.92E-05	49.53917	5.89E-07
826	2.86E-05	49.56563	5.78E-07
827	2.90E-05	49.59168	5.84E-07
828	2.84E-05	49.6173	5.73E-07
829	2.83E-05	49.64252	5.71E-07
830	2.85E-05	49.66731	5.73E-07
831	2.80E-05	49.6917	5.64E-07
832	2.83E-05	49.71567	5.69E-07
833	2.83E-05	49.73923	5.69E-07
834	2.79E-05	49.76238	5.60E-07
835	2.81E-05	49.78513	5.64E-07
836	2.81E-05	49.80747	5.64E-07
837	2.83E-05	49.82941	5.68E-07
838	2.80E-05	49.85094	5.62E-07
839	2.78E-05	49.87207	5.58E-07
840	2.77E-05	49.8928	5.54E-07
841	2.80E-05	49.91314	5.61E-07
842	2.78E-05	49.93307	5.57E-07
843	2.77E-05	49.95261	5.55E-07
844	2.80E-05	49.97176	5.61E-07
845	2.77E-05	49.99051	5.54E-07
846	2.78E-05	50.00887	5.56E-07
847	2.81E-05	50.02684	5.62E-07
848	2.79E-05	50.04443	5.57E-07
849	2.82E-05	50.06162	5.63E-07
850	2.76E-05	50.07843	5.52E-07
851	2.80E-05	50.09486	5.59E-07
852	2.80E-05	50.1109	5.59E-07
853	2.83E-05	50.12656	5.65E-07
854	2.83E-05	50.14184	5.65E-07
855	2.82E-05	50.15675	5.61E-07
856	2.84E-05	50.17127	5.67E-07
857	2.83E-05	50.18542	5.64E-07
858	2.85E-05	50.1992	5.67E-07
859	2.85E-05	50.2126	5.67E-07
860	2.87E-05	50.22563	5.71E-07
861	2.88E-05	50.2383	5.73E-07
862	2.88E-05	50.25059	5.73E-07
863	2.90E-05	50.26252	5.76E-07
864	2.93E-05	50.27408	5.83E-07
865	2.95E-05	50.28528	5.86E-07
866	2.93E-05	50.29612	5.83E-07
867	2.97E-05	50.30659	5.90E-07
868	3.00E-05	50.31671	5.97E-07
869	3.00E-05	50.32647	5.95E-07
870	3.01E-05	50.33587	5.97E-07
871	3.03E-05	50.34492	6.01E-07
872	3.01E-05	50.35361	5.98E-07
873	3.04E-05	50.36195	6.03E-07
874	3.07E-05	50.36994	6.10E-07
875	3.08E-05	50.37758	6.12E-07
876	3.12E-05	50.38488	6.19E-07
877	3.10E-05	50.39182	6.14E-07
878	3.12E-05	50.39842	6.20E-07
879	3.15E-05	50.40468	6.25E-07
880	3.16E-05	50.4106	6.27E-07
881	3.19E-05	50.41618	6.32E-07
882	3.20E-05	50.42141	6.35E-07
883	3.20E-05	50.42631	6.35E-07
884	3.22E-05	50.43088	6.39E-07
885	3.24E-05	50.43511	6.42E-07
886	3.28E-05	50.439	6.50E-07
887	3.31E-05	50.44257	6.56E-07
888	3.34E-05	50.4458	6.63E-07
889	3.33E-05	50.44871	6.60E-07
890	3.36E-05	50.45129	6.66E-07
891	3.40E-05	50.45354	6.73E-07
892	3.36E-05	50.45547	6.67E-07
893	3.40E-05	50.45707	6.75E-07
894	3.43E-05	50.45836	6.79E-07
895	3.49E-05	50.45932	6.92E-07
896	3.45E-05	50.45996	6.84E-07
897	3.49E-05	50.46029	6.92E-07
898	3.50E-05	50.4603	6.94E-07
899	3.50E-05	50.46	6.93E-07
900	3.53E-05	50.45939	6.99E-07
901	3.57E-05	50.45846	7.07E-07
902	3.60E-05	50.45722	7.14E-07
903	3.61E-05	50.45568	7.15E-07
904	3.63E-05	50.45383	7.19E-07
905	3.63E-05	50.45167	7.20E-07
906	3.65E-05	50.44921	7.23E-07
907	3.71E-05	50.44644	7.35E-07
908	3.72E-05	50.44337	7.37E-07
909	3.76E-05	50.44001	7.46E-07
910	3.72E-05	50.43634	7.37E-07
911	3.79E-05	50.43238	7.52E-07
912	3.81E-05	50.42812	7.56E-07
913	3.78E-05	50.42357	7.49E-07
914	3.81E-05	50.41873	7.56E-07
915	3.85E-05	50.41359	7.65E-07
916	3.86E-05	50.40816	7.66E-07
917	3.86E-05	50.40245	7.65E-07
918	3.91E-05	50.39645	7.75E-07
919	3.93E-05	50.39016	7.80E-07
920	3.93E-05	50.38359	7.80E-07
921	3.95E-05	50.37673	7.85E-07
922	3.95E-05	50.36959	7.84E-07
923	4.01E-05	50.36218	7.95E-07
924	4.02E-05	50.35448	7.99E-07
925	4.02E-05	50.34651	7.98E-07
926	4.03E-05	50.33826	8.00E-07
927	4.10E-05	50.32973	8.15E-07
928	4.11E-05	50.32093	8.16E-07
929	4.10E-05	50.31186	8.16E-07
930	4.12E-05	50.30252	8.19E-07
931	4.12E-05	50.29291	8.19E-07
932	4.11E-05	50.28304	8.17E-07
933	4.13E-05	50.27289	8.22E-07
934	4.16E-05	50.26248	8.28E-07
935	4.19E-05	50.25181	8.35E-07
936	4.21E-05	50.24088	8.37E-07
937	4.17E-05	50.22968	8.30E-07
938	4.20E-05	50.21823	8.36E-07
939	4.22E-05	50.20651	8.41E-07
940	4.23E-05	50.19454	8.42E-07
941	4.25E-05	50.18232	8.46E-07
942	4.27E-05	50.16983	8.50E-07
943	4.27E-05	50.1571	8.51E-07
944	4.27E-05	50.14412	8.53E-07
945	4.31E-05	50.13088	8.59E-07
946	4.35E-05	50.1174	8.67E-07
947	4.34E-05	50.10366	8.67E-07
948	4.31E-05	50.08969	8.61E-07
949	4.32E-05	50.07546	8.62E-07
950	4.35E-05	50.061	8.69E-07
951	4.38E-05	50.04629	8.75E-07
952	4.37E-05	50.03134	8.73E-07
953	4.44E-05	50.01615	8.87E-07
954	4.45E-05	50.00072	8.89E-07
955	4.39E-05	49.98505	8.79E-07
956	4.46E-05	49.96915	8.92E-07
957	4.46E-05	49.95302	8.93E-07
958	4.44E-05	49.93665	8.89E-07
959	4.46E-05	49.92005	8.94E-07
960	4.45E-05	49.90322	8.92E-07
961	4.48E-05	49.88616	8.97E-07
962	4.49E-05	49.86887	9.01E-07
963	4.47E-05	49.85135	8.97E-07
964	4.51E-05	49.83361	9.04E-07
965	4.51E-05	49.81565	9.05E-07
966	4.51E-05	49.79746	9.06E-07
967	4.55E-05	49.77905	9.15E-07
968	4.51E-05	49.76042	9.07E-07
969	4.49E-05	49.74157	9.03E-07
970	4.52E-05	49.7225	9.09E-07
971	4.51E-05	49.70322	9.08E-07
972	4.55E-05	49.68372	9.15E-07
973	4.54E-05	49.664	9.14E-07
974	4.58E-05	49.64407	9.23E-07
975	4.58E-05	49.62394	9.24E-07
976	4.54E-05	49.60359	9.15E-07
977	4.53E-05	49.58303	9.14E-07
978	4.56E-05	49.56226	9.20E-07
979	4.56E-05	49.54129	9.21E-07
980	4.54E-05	49.52011	9.17E-07
981	4.54E-05	49.49873	9.18E-07
982	4.55E-05	49.47714	9.20E-07
983	4.58E-05	49.45535	9.27E-07
984	4.58E-05	49.43336	9.26E-07
985	4.51E-05	49.41117	9.13E-07
986	4.57E-05	49.38879	9.25E-07
987	4.52E-05	49.3662	9.16E-07
988	4.58E-05	49.34342	9.29E-07
989	4.54E-05	49.32044	9.21E-07
990	4.56E-05	49.29728	9.26E-07
991	4.56E-05	49.27391	9.25E-07
992	4.54E-05	49.25036	9.21E-07
993	4.53E-05	49.22662	9.21E-07
994	4.55E-05	49.20269	9.25E-07
995	4.55E-05	49.17857	9.25E-07
996	4.50E-05	49.15426	9.16E-07
997	4.50E-05	49.12977	9.15E-07
998	4.50E-05	49.10509	9.16E-07
999	4.48E-05	49.08023	9.12E-07
1000	4.49E-05	49.05519	9.15E-07
1001	4.45E-05	49.02997	9.07E-07
1002	4.45E-05	49.00456	9.08E-07
1003	4.47E-05	48.97898	9.12E-07
1004	4.44E-05	48.95323	9.06E-07
1005	4.41E-05	48.92729	9.02E-07
1006	4.39E-05	48.90118	8.98E-07
1007	4.41E-05	48.8749	9.02E-07
1008	4.36E-05	48.84844	8.93E-07
1009	4.35E-05	48.82181	8.90E-07
1010	4.33E-05	48.79501	8.87E-07
1011	4.35E-05	48.76804	8.93E-07
1012	4.28E-05	48.7409	8.78E-07
1013	4.28E-05	48.7136	8.79E-07
1014	4.25E-05	48.68612	8.74E-07
1015	4.21E-05	48.65848	8.64E-07
1016	4.21E-05	48.63068	8.65E-07
1017	4.18E-05	48.60272	8.59E-07
1018	4.15E-05	48.57459	8.55E-07
1019	4.13E-05	48.5463	8.51E-07
1020	4.10E-05	48.51785	8.45E-07
1021	4.09E-05	48.48925	8.44E-07
1022	4.05E-05	48.46048	8.35E-07
1023	3.98E-05	48.43156	8.23E-07
1024	3.97E-05	48.40248	8.19E-07
1025	3.93E-05	48.37325	8.13E-07
1026	3.89E-05	48.34386	8.06E-07
1027	3.91E-05	48.31432	8.10E-07
1028	3.83E-05	48.28463	7.94E-07
1029	3.84E-05	48.25479	7.96E-07
1030	3.79E-05	48.2248	7.86E-07
1031	3.73E-05	48.19466	7.73E-07
1032	3.69E-05	48.16438	7.66E-07
1033	3.67E-05	48.13394	7.62E-07
1034	3.65E-05	48.10337	7.58E-07
1035	3.62E-05	48.07264	7.52E-07
1036	3.51E-05	48.04178	7.30E-07
1037	3.51E-05	48.01077	7.31E-07
1038	3.47E-05	47.97962	7.24E-07
1039	3.37E-05	47.94833	7.04E-07
1040	3.33E-05	47.9169	6.96E-07
1041	3.33E-05	47.88533	6.95E-07
1042	3.26E-05	47.85363	6.81E-07
1043	3.22E-05	47.82179	6.73E-07
1044	3.17E-05	47.78981	6.63E-07
1045	3.14E-05	47.7577	6.58E-07
1046	3.07E-05	47.72545	6.43E-07
1047	3.03E-05	47.69307	6.36E-07
1048	3.03E-05	47.66056	6.35E-07
1049	2.93E-05	47.62792	6.16E-07
1050	2.85E-05	47.59516	5.98E-07
1051	2.81E-05	47.56226	5.92E-07
1052	2.77E-05	47.52923	5.83E-07
1053	2.74E-05	47.49608	5.76E-07
1054	2.68E-05	47.4628	5.66E-07
1055	2.62E-05	47.42939	5.53E-07
1056	2.56E-05	47.39587	5.41E-07
1057	2.53E-05	47.36222	5.34E-07
1058	2.48E-05	47.32844	5.24E-07
1059	2.40E-05	47.29455	5.08E-07
1060	2.32E-05	47.26053	4.91E-07
1061	2.33E-05	47.2264	4.93E-07
1062	2.25E-05	47.19215	4.77E-07
1063	2.17E-05	47.15777	4.61E-07
1064	2.16E-05	47.12329	4.58E-07
1065	2.10E-05	47.08868	4.45E-07
1066	2.03E-05	47.05397	4.32E-07
1067	1.99E-05	47.01913	4.24E-07
1068	1.95E-05	46.98419	4.14E-07
1069	1.92E-05	46.94913	4.10E-07
1070	1.86E-05	46.91396	3.97E-07
1071	1.86E-05	46.87868	3.96E-07
1072	1.82E-05	46.8433	3.89E-07
1073	1.77E-05	46.8078	3.79E-07
1074	1.73E-05	46.77219	3.69E-07
1075	1.69E-05	46.73648	3.63E-07
1076	1.66E-05	46.70066	3.56E-07
1077	1.64E-05	46.66474	3.52E-07
1078	1.64E-05	46.62871	3.51E-07
1079	1.55E-05	46.59258	3.33E-07
1080	1.54E-05	46.55634	3.30E-07
1081	1.51E-05	46.52001	3.24E-07
1082	1.48E-05	46.48357	3.19E-07
1083	1.41E-05	46.44703	3.04E-07
1084	1.40E-05	46.41039	3.02E-07
1085	1.37E-05	46.37366	2.96E-07
1086	1.35E-05	46.33682	2.92E-07
1087	1.32E-05	46.29989	2.86E-07
1088	1.29E-05	46.26287	2.79E-07
1089	1.25E-05	46.22575	2.71E-07
1090	1.25E-05	46.18853	2.71E-07
1091	1.19E-05	46.15122	2.58E-07
1092	1.18E-05	46.11382	2.55E-07
1093	1.21E-05	46.07632	2.63E-07
1094	1.13E-05	46.03873	2.46E-07
1095	1.13E-05	46.00106	2.45E-07
1096	1.10E-05	45.96329	2.38E-07
1097	1.06E-05	45.92543	2.31E-07
1098	1.05E-05	45.88749	2.28E-07
1099	9.86E-06	45.84946	2.15E-07
1100	9.90E-06	45.81134	2.16E-07

