\relax 
\providecommand\hyper@newdestlabel[2]{}
\catcode `^\active 
\catcode `"\active 
\catcode `'\active 
\catcode `-\active 
\providecommand\HyperFirstAtBeginDocument{\AtBeginDocument}
\HyperFirstAtBeginDocument{\ifx\hyper@anchor\@undefined
\global\let\oldcontentsline\contentsline
\gdef\contentsline#1#2#3#4{\oldcontentsline{#1}{#2}{#3}}
\global\let\oldnewlabel\newlabel
\gdef\newlabel#1#2{\newlabelxx{#1}#2}
\gdef\newlabelxx#1#2#3#4#5#6{\oldnewlabel{#1}{{#2}{#3}}}
\AtEndDocument{\ifx\hyper@anchor\@undefined
\let\contentsline\oldcontentsline
\let\newlabel\oldnewlabel
\fi}
\fi}
\global\let\hyper@last\relax 
\gdef\HyperFirstAtBeginDocument#1{#1}
\providecommand\HyField@AuxAddToFields[1]{}
\providecommand\HyField@AuxAddToCoFields[2]{}
\babel@aux{slovak}{}
\@writefile{toc}{\contentsline {section}{\numberline {1}Teoretick\IeC {\'a} \IeC {\v c}as\IeC {\v t}}{2}{section.1}\protected@file@percent }
\@writefile{toc}{\contentsline {section}{\numberline {2}V\IeC {\'y}sledky merania}{3}{section.2}\protected@file@percent }
\@writefile{lot}{\contentsline {table}{\numberline {1}{\ignorespaces Po\IeC {\v c}etnos\IeC {\v t} dopadu $\alpha $-\IeC {\v c}ast\IeC {\'\i }c a d\IeC {\'l}\IeC {\v z}ka merania v z\IeC {\'a}vislosti na okolitom tlaku.}}{4}{table.1}\protected@file@percent }
\@writefile{lot}{\contentsline {table}{\numberline {2}{\ignorespaces Tabu\IeC {\v l}ka ur\IeC {\v c}en\IeC {\'y}ch kinetick\IeC {\'y}ch energii $\alpha $-\IeC {\v c}ast\IeC {\'\i }c a ich str\IeC {\'a}t.}}{4}{table.2}\protected@file@percent }
\@writefile{lof}{\contentsline {figure}{\numberline {1}{\ignorespaces \IeC {\'U}bytok kinetickej energie $\alpha $-\IeC {\v c}ast\IeC {\'\i }c v z\IeC {\'a}vislosti na okolitom tlaku.}}{5}{figure.1}\protected@file@percent }
\@writefile{lof}{\contentsline {figure}{\numberline {2}{\ignorespaces Z\IeC {\'a}vislos\IeC {\v t} \IeC {\v s}pecifickej ioniza\IeC {\v c}nej straty na kinetickej energii $\alpha $-\IeC {\v c}ast\IeC {\'\i }c.}}{5}{figure.2}\protected@file@percent }
\bibcite{1}{1}
\bibcite{2}{2}
\@writefile{toc}{\contentsline {section}{\numberline {3}Diskusia}{6}{section.3}\protected@file@percent }
\@writefile{toc}{\contentsline {section}{\numberline {4}Z\IeC {\'a}ver}{6}{section.4}\protected@file@percent }
\bibcite{3}{3}
\bibcite{4}{4}
